<?xml version="1.0" encoding="UTF-8" standalone="no"?>
<svg
   version="1.1"
   id="svg1"
   width="16"
   height="16"
   viewBox="0 0 16 16"
   sodipodi:docname="cols-symbolic.svg"
   inkscape:version="1.2-dev (28fb250, 2021-12-20)"
   xmlns:inkscape="http://www.inkscape.org/namespaces/inkscape"
   xmlns:sodipodi="http://sodipodi.sourceforge.net/DTD/sodipodi-0.dtd"
   xmlns="http://www.w3.org/2000/svg"
   xmlns:svg="http://www.w3.org/2000/svg"
   xmlns:rdf="http://www.w3.org/1999/02/22-rdf-syntax-ns#"
   xmlns:cc="http://creativecommons.org/ns#"
   xmlns:dc="http://purl.org/dc/elements/1.1/">
  <style
     id="s0">
   .success { fill: #009909; }
   .warning { fill: #FF1990; }
   .error   { fill: #00AAFF; }
  </style>
  <style
     id="s2"> 
     @import '../../highlights.css'; 
  </style>
  <metadata
     id="metadata280">
    <rdf:RDF>
      <cc:Work
         rdf:about="">
        <dc:format>image/svg+xml</dc:format>
        <dc:type
           rdf:resource="http://purl.org/dc/dcmitype/StillImage" />
      </cc:Work>
    </rdf:RDF>
  </metadata>
  <defs
     id="defs278" />
  <sodipodi:namedview
     objecttolerance="10"
     gridtolerance="10"
     guidetolerance="10"
     id="namedview"
     showgrid="true"
     inkscape:zoom="32"
     inkscape:cx="12.28125"
     inkscape:cy="9.5"
     inkscape:window-width="1920"
     inkscape:window-height="1011"
     inkscape:window-x="0"
     inkscape:window-y="32"
     inkscape:window-maximized="1"
     inkscape:current-layer="g22133"
     inkscape:document-rotation="0"
     inkscape:snap-global="true"
     pagecolor="#ffffff"
     bordercolor="#666666"
     borderopacity="1.0"
     inkscape:pageshadow="2"
     inkscape:pageopacity="0.0"
     inkscape:pagecheckerboard="0"
     inkscape:blackoutopacity="0.0">
    <inkscape:grid
       spacingy="1"
       spacingx="1"
       type="xygrid"
       id="grid" />
  </sodipodi:namedview>
  <g
     transform="matrix(0.666667,0,0,0.666666,-721.33333,-396.90779)"
     inkscape:label="00269"
     id="align-horizontal-left">
    <g
       id="g22133">
      <path
         id="rect9524-9"
         style="stroke-width:1.86888;stroke-linecap:round;stroke-linejoin:round;stroke-opacity:0.996078;paint-order:fill markers stroke"
         d="m 1089.7994,603.28456 v 10.99122 h -2.1652 v -10.99122 z m 3.5186,-2.53644 v 11.41395 h -1.8947 v -11.41395 z m 3.586,2.53644 v 10.99122 h -2.1651 v -10.99122 z m 3.5184,-2.53644 v 11.41395 h -1.8945 v -11.41395 z m -15.9885,-3.88584 c -0.516,8e-5 -0.9343,0.4184 -0.9344,0.93443 v 19.13116 c 1e-4,0.51603 0.4184,0.93435 0.9344,0.93443 h 19.1313 c 0.516,-1.4e-4 0.9342,-0.41844 0.9343,-0.93443 v -19.13116 c -10e-5,-0.51599 -0.4183,-0.93429 -0.9343,-0.93443 z m 0.9345,1.86886 h 17.2623 v 17.2623 h -17.2623 z"
         sodipodi:nodetypes="cccccccccccccccccccccccccccccccccc" />
    </g>
  </g>
</svg>
